{
  "mycall": "K3FNB",
  "locator": "FM19je",
  "auxiliary_addresses": [],
  "service_codes": [
    "PUBLIC"
  ],
  "http_addr": "localhost:8080",
  "motd": [
    "Open source Winlink client - getpat.io"
  ],
  "connect_aliases": {
    "telnet": "telnet://{mycall}:CMSTelnet@cms.winlink.org:8772/wl2k",
    "wm3m-10": "ax25:///wm3m-10?freq=145090"
  },
  "listen": [],
  "hamlib_rigs": {
    "991a": {
      "address": "localhost:4532",
      "network": "tcp"
    }
  },
  "ax25": {
    "engine": "agwpe",
    "beacon": {
      "every": 3600,
      "message": "Winlink P2P",
      "destination": "IDENT"
    },
    "rig": "991a",
    "ptt_ctrl": false
  },
  "ardop": {
    "addr": "localhost:8515",
    "arq_bandwidth": {
      "Forced": false,
      "Max": 500
    },
    "rig": "991a",
    "ptt_ctrl": false,
    "beacon_interval": 0,
    "cwid_enabled": true
  },
  "telnet": {
    "listen_addr": ":8774",
    "password": ""
  },
  "gpsd": {
    "enable_http": false,
    "allow_forms": false,
    "use_server_time": false,
    "addr": "localhost:2947"
  },
  "schedule": {},
  "version_reporting_disabled": false
}
